<?xml version="1.0" encoding="UTF-8" standalone="no"?>
<!-- Created with Inkscape (http://www.inkscape.org/) -->
<svg id="svg2796" xmlns:rdf="http://www.w3.org/1999/02/22-rdf-syntax-ns#" xmlns="http://www.w3.org/2000/svg" height="370" width="600" version="1.0" xmlns:cc="http://creativecommons.org/ns#" xmlns:dc="http://purl.org/dc/elements/1.1/">
 <metadata id="metadata2801">
  <rdf:RDF>
   <cc:Work rdf:about="">
    <dc:format>image/svg+xml</dc:format>
    <dc:type rdf:resource="http://purl.org/dc/dcmitype/StillImage"/>
   </cc:Work>
  </rdf:RDF>
 </metadata>
 <g id="layer1" transform="translate(-78.664 -186.59)">
  <g id="g2789">
   <path id="line2653" d="m117.03 508.8h535.64" stroke="#000" stroke-width="3.625" fill="none"/>
   <path id="polyline2655" d="m638.6 517.86l18.12-9.06-18.12-9.06" stroke="#000" stroke-width="3.625" fill="none"/>
   <path id="line2657" d="m153.28 545.05v-318.15" stroke="#000" stroke-width="3.625" fill="none"/>
   <path id="polyline2659" d="m162.34 240.98l-9.06-18.13-9.07 18.13" stroke="#000" stroke-width="3.625" fill="none"/>
   <path id="line2661" d="m153.28 472.55h471.25" stroke="#000" stroke-dasharray="7.25" stroke-width="1.8125" fill="none"/>
   <path id="line2663" d="m153.28 436.3h471.25" stroke="#000" stroke-dasharray="7.25" stroke-width="1.8125" fill="none"/>
   <path id="line2665" d="m153.28 400.05h471.25" stroke="#000" stroke-dasharray="7.25" stroke-width="1.8125" fill="none"/>
   <path id="line2667" d="m153.28 363.8h471.25" stroke="#000" stroke-dasharray="7.25" stroke-width="1.8125" fill="none"/>
   <path id="line2669" d="m153.28 327.55h471.25" stroke="#000" stroke-dasharray="7.25" stroke-width="1.8125" fill="none"/>
   <path id="line2671" d="m153.28 291.3h471.25" stroke="#000" stroke-dasharray="7.25" stroke-width="1.8125" fill="none"/>
   <path id="line2673" d="m153.28 255.05h471.25" stroke="#000" stroke-dasharray="7.25" stroke-width="1.8125" fill="none"/>
   <path id="line2675" d="m189.53 508.8v-253.75" stroke="#000" stroke-dasharray="7.25" stroke-width="1.8125" fill="none"/>
   <path id="line2677" d="m225.78 508.8v-253.75" stroke="#000" stroke-dasharray="7.25" stroke-width="1.8125" fill="none"/>
   <path id="line2679" d="m262.03 508.8v-253.75" stroke="#000" stroke-dasharray="7.25" stroke-width="1.8125" fill="none"/>
   <path id="line2681" d="m298.28 508.8v-253.75" stroke="#000" stroke-dasharray="7.25" stroke-width="1.8125" fill="none"/>
   <path id="line2683" d="m334.53 508.8v-253.75" stroke="#000" stroke-dasharray="7.25" stroke-width="1.8125" fill="none"/>
   <path id="line2685" d="m370.78 508.8v-253.75" stroke="#000" stroke-dasharray="7.25" stroke-width="1.8125" fill="none"/>
   <path id="line2687" d="m407.03 508.8v-253.75" stroke="#000" stroke-dasharray="7.25" stroke-width="1.8125" fill="none"/>
   <path id="line2689" d="m443.28 508.8v-253.75" stroke="#000" stroke-dasharray="7.25" stroke-width="1.8125" fill="none"/>
   <path id="line2691" d="m479.53 508.8v-253.75" stroke="#000" stroke-dasharray="7.25" stroke-width="1.8125" fill="none"/>
   <path id="line2693" d="m515.78 508.8v-253.75" stroke="#000" stroke-dasharray="7.25" stroke-width="1.8125" fill="none"/>
   <path id="line2695" d="m552.03 508.8v-253.75" stroke="#000" stroke-dasharray="7.25" stroke-width="1.8125" fill="none"/>
   <path id="line2697" d="m588.28 508.8v-253.75" stroke="#000" stroke-dasharray="7.25" stroke-width="1.8125" fill="none"/>
   <path id="line2699" d="m624.53 508.8v-253.75" stroke="#000" stroke-dasharray="7.25" stroke-width="1.8125" fill="none"/>
   <path id="path2703" d="m153.28 508.8c10.83 0 36.25-326.25 108.75-145s108.75-253.75 181.25-36.25 108.75-72.5 181.25 72.5" stroke="#c1c1c1" stroke-width="3.625" fill="none"/>
   <text id="text2716" line-height="125%" font-size="36px" y="547.04944" x="650.99542" font-family="Sans" xml:space="preserve" fill="#000000"><tspan id="tspan2718" y="547.04944" x="650.99542">t</tspan></text>
   <text id="text2720" xml:space="preserve" font-size="36.83px" y="222.00365" x="87.993294" font-family="Arial" line-height="125%" fill="#000000"><tspan id="tspan2722" x="87.993294" y="222.00365">x[t]</tspan></text>
   <path id="line3793" d="m189.53 508.84v-140.44" stroke="#f00" stroke-width="3.5433" fill="none"/>
   <path id="path2425" d="m225.78 508.84v-178.44" stroke="#f00" stroke-width="3.5433" fill="none"/>
   <path id="path2431" d="m262.03 508.84v-140.44" stroke="#f00" stroke-width="3.5433" fill="none"/>
   <path id="path2445" d="m298.28 508.84v-104.44" stroke="#f00" stroke-width="3.5433" fill="none"/>
   <path id="path2457" d="m370.78 508.84v-214.44" stroke="#f00" stroke-width="3.5433" fill="none"/>
   <path id="path2463" d="m407.03 508.84v-250.44" stroke="#f00" stroke-width="3.5433" fill="none"/>
   <path id="path2505" d="m334.53 508.84v-140.44" stroke="#f00" stroke-width="3.5433" fill="none"/>
   <path id="path2511" d="m443.28 508.84v-178.44" stroke="#f00" stroke-width="3.5433" fill="none"/>
   <path id="path2517" d="m479.53 508.84v-104.44" stroke="#f00" stroke-width="3.5433" fill="none"/>
   <path id="path2523" d="m515.78 508.84v-104.44" stroke="#f00" stroke-width="3.5433" fill="none"/>
   <path id="path2529" d="m552.03 508.84v-140.44" stroke="#f00" stroke-width="3.5433" fill="none"/>
   <path id="path2535" d="m588.28 508.84v-140.44" stroke="#f00" stroke-width="3.5433" fill="none"/>
   <path id="path2541" d="m624.53 508.84v-104.44" stroke="#f00" stroke-width="3.5433" fill="none"/>
   <text id="text2645" line-height="125%" font-size="24px" y="481.17444" x="132.18427" font-family="Arial" xml:space="preserve" fill="#000000"><tspan id="tspan2647" y="481.17444" x="132.18427">1</tspan></text>
   <text id="text2649" xml:space="preserve" font-size="24px" y="444.92444" x="129.04364" font-family="Arial" line-height="125%" fill="#000000"><tspan id="tspan2651" x="129.04364" y="444.92444">2</tspan></text>
   <text id="text2653" xml:space="preserve" font-size="24px" y="408.67444" x="128.86786" font-family="Arial" line-height="125%" fill="#000000"><tspan id="tspan2655" x="128.86786" y="408.67444">3</tspan></text>
   <text id="text2657" line-height="125%" font-size="24px" y="372.42444" x="128.93817" font-family="Arial" xml:space="preserve" fill="#000000"><tspan id="tspan2659" y="372.42444" x="128.93817">4</tspan></text>
   <text id="text2661" xml:space="preserve" font-size="24px" y="336.17444" x="128.73895" font-family="Arial" line-height="125%" fill="#000000"><tspan id="tspan2663" x="128.73895" y="336.17444">5</tspan></text>
   <text id="text2665" line-height="125%" font-size="24px" y="299.92444" x="128.87958" font-family="Arial" xml:space="preserve" fill="#000000"><tspan id="tspan2667" y="299.92444" x="128.87958">6</tspan></text>
   <text id="text2669" xml:space="preserve" font-size="24px" y="263.52795" x="128.86786" font-family="Arial" line-height="125%" fill="#000000"><tspan id="tspan2671" x="128.86786" y="263.52795">7</tspan></text>
   <text id="text2673" xml:space="preserve" font-size="24px" y="537.17444" x="128.92645" font-family="Arial" line-height="125%" fill="#000000"><tspan id="tspan2675" x="128.92645" y="537.17444">0</tspan></text>
   <text id="text2677" line-height="125%" font-size="24px" y="537.46741" x="183.74857" font-family="Arial" xml:space="preserve" fill="#000000"><tspan id="tspan2679" y="537.46741" x="183.74857">1</tspan></text>
   <text id="text2681" xml:space="preserve" font-size="24px" y="537.46741" x="219.38333" font-family="Arial" line-height="125%" fill="#000000"><tspan id="tspan2683" x="219.38333" y="537.46741">2</tspan></text>
   <text id="text2685" line-height="125%" font-size="24px" y="537.16272" x="255.3931" font-family="Arial" xml:space="preserve" fill="#000000"><tspan id="tspan2687" y="537.16272" x="255.3931">3</tspan></text>
   <text id="text2689" xml:space="preserve" font-size="24px" y="537.46741" x="292.02982" font-family="Arial" line-height="125%" fill="#000000"><tspan id="tspan2691" x="292.02982" y="537.46741">4</tspan></text>
   <text id="text2693" line-height="125%" font-size="24px" y="537.17444" x="327.8345" font-family="Arial" xml:space="preserve" fill="#000000"><tspan id="tspan2695" y="537.17444" x="327.8345">5</tspan></text>
   <text id="text2697" xml:space="preserve" font-size="24px" y="537.17444" x="364.20172" font-family="Arial" line-height="125%" fill="#000000"><tspan id="tspan2699" x="364.20172" y="537.17444">6</tspan></text>
   <text id="text2701" line-height="125%" font-size="24px" y="537.46741" x="400.32867" font-family="Arial" xml:space="preserve" fill="#000000"><tspan id="tspan2703" y="537.46741" x="400.32867">7</tspan></text>
   <text id="text2705" xml:space="preserve" font-size="24px" y="537.17444" x="436.64313" font-family="Arial" line-height="125%" fill="#000000"><tspan id="tspan2707" x="436.64313" y="537.17444">8</tspan></text>
   <text id="text2709" line-height="125%" font-size="24px" y="537.17444" x="472.88141" font-family="Arial" xml:space="preserve" fill="#000000"><tspan id="tspan2711" y="537.17444" x="472.88141">9</tspan></text>
   <text id="text2713" xml:space="preserve" font-size="24px" y="537.17444" x="501.69" font-family="Arial" line-height="125%" fill="#000000"><tspan id="tspan2715" x="501.69" y="537.17444">10</tspan></text>
   <text id="text2717" line-height="125%" font-size="24px" y="537.46741" x="539.56897" font-family="Arial" xml:space="preserve" fill="#000000"><tspan id="tspan2719" y="537.46741" x="539.56897">11</tspan></text>
   <text id="text2721" xml:space="preserve" font-size="24px" y="537.46741" x="574.24866" font-family="Arial" line-height="125%" fill="#000000"><tspan id="tspan2723" x="574.24866" y="537.46741">12</tspan></text>
   <text id="text2725" line-height="125%" font-size="24px" y="537.16272" x="610.41077" font-family="Arial" xml:space="preserve" fill="#000000"><tspan id="tspan2727" y="537.16272" x="610.41077">13</tspan></text>
   <path id="path2739" stroke="#f00" stroke-linecap="round" fill="#f00" fill-rule="evenodd" transform="translate(53.557 202.24)" d="m142.48 161.56a6.5082 6.5082 0 1 1 -13.02 0 6.5082 6.5082 0 1 1 13.02 0z"/>
   <path id="path2741" stroke="#f00" stroke-linecap="round" fill="#f00" fill-rule="evenodd" transform="translate(89.807 165.99)" d="m142.48 161.56a6.5082 6.5082 0 1 1 -13.02 0 6.5082 6.5082 0 1 1 13.02 0z"/>
   <path id="path2767" stroke="#f00" stroke-linecap="round" fill="#f00" fill-rule="evenodd" transform="translate(126.06 202.24)" d="m142.48 161.56a6.5082 6.5082 0 1 1 -13.02 0 6.5082 6.5082 0 1 1 13.02 0z"/>
   <path id="path2769" stroke="#f00" stroke-linecap="round" fill="#f00" fill-rule="evenodd" transform="translate(162.31 238.49)" d="m142.48 161.56a6.5082 6.5082 0 1 1 -13.02 0 6.5082 6.5082 0 1 1 13.02 0z"/>
   <path id="path2771" stroke="#f00" stroke-linecap="round" fill="#f00" fill-rule="evenodd" transform="translate(198.56 202.24)" d="m142.48 161.56a6.5082 6.5082 0 1 1 -13.02 0 6.5082 6.5082 0 1 1 13.02 0z"/>
   <path id="path2773" stroke="#f00" stroke-linecap="round" fill="#f00" fill-rule="evenodd" transform="translate(234.81 129.74)" d="m142.48 161.56a6.5082 6.5082 0 1 1 -13.02 0 6.5082 6.5082 0 1 1 13.02 0z"/>
   <path id="path2775" stroke="#f00" stroke-linecap="round" fill="#f00" fill-rule="evenodd" transform="translate(271.06 91.961)" d="m142.48 161.56a6.5082 6.5082 0 1 1 -13.02 0 6.5082 6.5082 0 1 1 13.02 0z"/>
   <path id="path2777" stroke="#f00" stroke-linecap="round" fill="#f00" fill-rule="evenodd" transform="translate(307.31 165.99)" d="m142.48 161.56a6.5082 6.5082 0 1 1 -13.02 0 6.5082 6.5082 0 1 1 13.02 0z"/>
   <path id="path2779" stroke="#f00" stroke-linecap="round" fill="#f00" fill-rule="evenodd" transform="translate(343.56 238.49)" d="m142.48 161.56a6.5082 6.5082 0 1 1 -13.02 0 6.5082 6.5082 0 1 1 13.02 0z"/>
   <path id="path2781" stroke="#f00" stroke-linecap="round" fill="#f00" fill-rule="evenodd" transform="translate(379.81 238.49)" d="m142.48 161.56a6.5082 6.5082 0 1 1 -13.02 0 6.5082 6.5082 0 1 1 13.02 0z"/>
   <path id="path2783" stroke="#f00" stroke-linecap="round" fill="#f00" fill-rule="evenodd" transform="translate(416.06 202.24)" d="m142.48 161.56a6.5082 6.5082 0 1 1 -13.02 0 6.5082 6.5082 0 1 1 13.02 0z"/>
   <path id="path2785" stroke="#f00" stroke-linecap="round" fill="#f00" fill-rule="evenodd" transform="translate(452.31 202.24)" d="m142.48 161.56a6.5082 6.5082 0 1 1 -13.02 0 6.5082 6.5082 0 1 1 13.02 0z"/>
   <path id="path2787" stroke="#f00" stroke-linecap="round" fill="#f00" fill-rule="evenodd" transform="translate(488.56 238.49)" d="m142.48 161.56a6.5082 6.5082 0 1 1 -13.02 0 6.5082 6.5082 0 1 1 13.02 0z"/>
  </g>
 </g>
</svg>
